Homework #4
…
7. What else do you find interesting in the dataset? Show your exploratory analysis. I was curious about the average growth trajectory for each diet. The graph shows that while Diet 1, 2 3 has constant growth, chicks on diet 4 has more growth until day 12, then their growth starts to drop off and are overtaken by chicks on Diet 3

#average growth trajectory for each diet
growth <- data %>%
  group_by(Diet,Time) %>%
  summarise(NumChicks = n()%/%12 ,average_weight = mean(weight),sd_weight = sd(weight))
growth

## # A tibble: 48 x 5
## # Groups:   Diet [?]
##    Diet   Time NumChicks average_weight sd_weight
##    <fct> <dbl>     <dbl>          <dbl>     <dbl>
##  1 1         0         1           41.4     0.995
##  2 1         2         1           47.2     4.28 
##  3 1         4         1           56.5     4.13 
##  4 1         6         1           66.8     7.76 
##  5 1         8         1           79.7    13.8  
##  6 1        10         1           93.1    22.5  
##  7 1        12         1          109.     32.6  
##  8 1        14         1          123.     37.4  
##  9 1        16         1          145.     45.0  
## 10 1        18         1          159.     49.2  
## # ... with 38 more rows
…
